[
  {
    "id": 0,
    "picture": "http://placehold.it/32x32",
    "age": 39,
    "name": "Margery Dillard",
    "gender": "female",
    "about": "Enim enim occaecat culpa laborum eiusmod laboris. Laboris in aliquip eu nisi deserunt nostrud id reprehenderit duis velit dolore velit. Ea ut elit sunt voluptate aliquip commodo irure nulla ullamco nulla et deserunt enim. Ad esse reprehenderit pariatur irure sunt exercitation eiusmod magna laboris duis non duis commodo nulla. Et nulla voluptate commodo sunt elit eu ipsum mollit non mollit fugiat.\r\n",
    "registered": "2018-07-10T10:42:31 -02:00"
  },
  {
    "id": 1,
    "picture": "http://placehold.it/32x32",
    "age": 81,
    "name": "Tonya Brady",
    "gender": "female",
    "about": "Id Lorem sit ut magna dolore veniam adipisicing amet ex irure voluptate ex do. Amet commodo ex aute ullamco sunt ut eu duis occaecat cillum labore est. Laborum tempor enim est exercitation culpa tempor do nulla deserunt. Velit non eiusmod excepteur aliqua reprehenderit culpa laborum tempor fugiat.\r\n",
    "registered": "2020-10-23T04:08:55 -02:00"
  },
  {
    "id": 2,
    "picture": "http://placehold.it/32x32",
    "age": 85,
    "name": "Bush Stephens",
    "gender": "male",
    "about": "Ea commodo amet eu aliqua ad aliquip sint ut eiusmod cupidatat minim eiusmod sit. Velit enim incididunt ipsum aliquip est tempor mollit eiusmod pariatur ipsum. Adipisicing ut Lorem reprehenderit minim quis ut eiusmod mollit.\r\n",
    "registered": "2018-08-04T09:42:40 -02:00"
  },
  {
    "id": 3,
    "picture": "http://placehold.it/32x32",
    "age": 54,
    "name": "Carlson Delacruz",
    "gender": "male",
    "about": "Commodo elit qui magna veniam eiusmod non est. Ut consectetur sit id magna. Dolore consequat ex minim fugiat fugiat veniam dolore est magna Lorem officia adipisicing mollit. Officia est deserunt adipisicing ad mollit et qui ex aute nostrud officia sunt. Mollit proident excepteur elit incididunt sint et non occaecat labore elit. Eu exercitation officia eiusmod mollit adipisicing ex nisi nostrud voluptate consequat amet. Aute nostrud excepteur et qui proident.\r\n",
    "registered": "2019-11-13T05:11:37 -01:00"
  },
  {
    "id": 4,
    "picture": "http://placehold.it/32x32",
    "age": 58,
    "name": "Lopez Rosa",
    "gender": "male",
    "about": "Aliquip id proident tempor aute ea laborum adipisicing voluptate. Laboris aliquip excepteur consequat ad ullamco labore pariatur ex non ex amet ullamco incididunt adipisicing. Velit laborum nisi eu mollit ullamco adipisicing adipisicing cupidatat esse nostrud officia nisi. Duis ea aliqua sint incididunt id eiusmod elit veniam voluptate velit quis velit. Laboris laboris dolor excepteur aliqua culpa incididunt esse eu esse ex. Aliqua adipisicing culpa sit Lorem ipsum sunt ut commodo sunt velit esse esse Lorem. Quis excepteur aute laborum cillum mollit reprehenderit sunt amet ex non id ad.\r\n",
    "registered": "2018-04-30T02:51:48 -02:00"
  },
  {
    "id": 5,
    "picture": "http://placehold.it/32x32",
    "age": 36,
    "name": "Tammie Osborne",
    "gender": "female",
    "about": "Mollit adipisicing nostrud ea voluptate in. In ipsum officia mollit et excepteur eiusmod deserunt. Officia culpa tempor aute enim velit aliqua elit dolore. Ullamco dolore excepteur duis fugiat elit sit eu occaecat. Consectetur laboris dolor pariatur duis sunt reprehenderit excepteur reprehenderit proident dolor. Nostrud nulla minim esse enim quis nisi nostrud non qui. Cupidatat ullamco adipisicing exercitation consequat amet quis ad.\r\n",
    "registered": "2015-09-15T12:16:05 -02:00"
  },
  {
    "id": 6,
    "picture": "http://placehold.it/32x32",
    "age": 36,
    "name": "Patrick Mcleod",
    "gender": "male",
    "about": "Enim voluptate adipisicing enim veniam consequat est. Nostrud veniam cupidatat eu ad et velit consectetur nulla cillum laborum enim. Dolore enim adipisicing proident laboris quis quis dolore cillum sint est ut sit ea. Pariatur nulla id aute voluptate deserunt laborum deserunt do amet exercitation.\r\n",
    "registered": "2018-03-31T08:01:32 -02:00"
  },
  {
    "id": 7,
    "picture": "http://placehold.it/32x32",
    "age": 99,
    "name": "Kathie Moran",
    "gender": "female",
    "about": "Ad incididunt incididunt proident non excepteur ad. Reprehenderit sunt ea in excepteur sunt velit cillum. Dolore officia in amet enim do id consectetur fugiat occaecat. Aliqua id dolore ipsum elit.\r\n",
    "registered": "2015-08-06T06:55:47 -02:00"
  },
  {
    "id": 8,
    "picture": "http://placehold.it/32x32",
    "age": 91,
    "name": "Nita Rollins",
    "gender": "female",
    "about": "Ut ea nisi labore laborum et. Esse esse nisi et Lorem qui et aliqua ex. Ea nisi ipsum mollit amet proident officia ea velit eiusmod magna eu proident commodo minim.\r\n",
    "registered": "2021-01-01T07:38:41 -01:00"
  },
  {
    "id": 9,
    "picture": "http://placehold.it/32x32",
    "age": 97,
    "name": "Abbott Patrick",
    "gender": "male",
    "about": "Occaecat ex esse incididunt adipisicing reprehenderit voluptate enim sunt sunt ad reprehenderit consectetur consequat. Excepteur qui do exercitation est culpa esse adipisicing minim nostrud voluptate. Tempor quis anim dolore fugiat dolor laborum incididunt fugiat nisi veniam. Consectetur incididunt amet cillum nulla nisi quis consectetur do. Nostrud ea mollit amet officia ut laborum occaecat ea laborum exercitation quis minim. In commodo quis consectetur ipsum non occaecat et nostrud nulla dolor eu non esse ullamco. Magna cupidatat commodo magna reprehenderit excepteur Lorem ipsum nostrud in pariatur deserunt nisi id.\r\n",
    "registered": "2017-10-04T07:01:15 -02:00"
  },
  {
    "id": 10,
    "picture": "http://placehold.it/32x32",
    "age": 62,
    "name": "Wanda Bolton",
    "gender": "female",
    "about": "Irure velit laboris veniam occaecat tempor. Amet consequat ullamco Lorem laboris. Excepteur officia ad Lorem consequat aliquip. Aliquip proident elit dolor aliqua laborum veniam nisi in tempor amet officia nostrud. Laborum incididunt velit ad Lorem mollit adipisicing officia id sint. Aliqua cillum aliqua nisi mollit sit nulla culpa nisi deserunt nulla elit.\r\n",
    "registered": "2014-10-07T02:27:20 -02:00"
  },
  {
    "id": 11,
    "picture": "http://placehold.it/32x32",
    "age": 77,
    "name": "Fanny Gardner",
    "gender": "female",
    "about": "Sunt ullamco ad tempor aliquip sunt occaecat aliqua proident officia ullamco pariatur minim excepteur. Culpa do dolore aute enim sit. Nisi ullamco eiusmod reprehenderit reprehenderit do reprehenderit nulla elit laboris. In id proident eiusmod officia pariatur laborum irure occaecat elit est excepteur nostrud do. Non ullamco pariatur ut incididunt nostrud ullamco tempor enim excepteur cillum fugiat.\r\n",
    "registered": "2017-12-31T10:49:11 -01:00"
  },
  {
    "id": 12,
    "picture": "http://placehold.it/32x32",
    "age": 38,
    "name": "Rush Cohen",
    "gender": "male",
    "about": "Ipsum commodo voluptate cillum sint dolor quis. Officia est nostrud laborum ad do labore velit ea laboris minim esse deserunt consectetur. Id reprehenderit dolore ex excepteur id irure reprehenderit sunt mollit sunt. Velit ut exercitation sint est ut eiusmod ex ex amet et dolor ea ullamco do. Eiusmod mollit velit ex nisi commodo nisi.\r\n",
    "registered": "2018-03-22T10:17:35 -01:00"
  },
  {
    "id": 13,
    "picture": "http://placehold.it/32x32",
    "age": 83,
    "name": "Bonita Marks",
    "gender": "female",
    "about": "Consectetur occaecat labore dolor in dolore. Sint reprehenderit enim aliqua consectetur. Occaecat consequat est consequat ad qui consequat consequat nisi ipsum officia. Pariatur incididunt adipisicing veniam aliquip laborum qui magna. Est sunt aute elit consectetur ut dolor esse magna mollit eiusmod.\r\n",
    "registered": "2018-01-06T12:36:05 -01:00"
  },
  {
    "id": 14,
    "picture": "http://placehold.it/32x32",
    "age": 26,
    "name": "Briggs Garrison",
    "gender": "male",
    "about": "In duis enim aliqua quis consectetur laboris laboris aliqua amet eu. Sunt laboris occaecat ea nostrud est irure eu sunt aute ullamco esse. Magna reprehenderit exercitation ad Lorem aute eu ex nostrud cillum. Voluptate magna incididunt ullamco nisi anim tempor exercitation exercitation ea dolor nulla elit.\r\n",
    "registered": "2016-04-17T01:59:25 -02:00"
  },
  {
    "id": 15,
    "picture": "http://placehold.it/32x32",
    "age": 93,
    "name": "Annie Oliver",
    "gender": "female",
    "about": "Occaecat anim do ea amet pariatur consequat. Cupidatat non nulla officia sit. Culpa qui culpa quis aute pariatur consequat magna adipisicing adipisicing. Do eu sunt quis et deserunt. Et quis Lorem enim in labore deserunt ut.\r\n",
    "registered": "2016-01-17T08:41:57 -01:00"
  },
  {
    "id": 16,
    "picture": "http://placehold.it/32x32",
    "age": 92,
    "name": "Jacklyn Mccarthy",
    "gender": "female",
    "about": "Eiusmod eiusmod do minim ut labore duis Lorem ullamco. Excepteur veniam eiusmod sunt id id sint deserunt. Aute nulla eiusmod ea ipsum Lorem id ea velit fugiat consectetur et veniam pariatur consequat. Commodo pariatur fugiat pariatur irure aliqua.\r\n",
    "registered": "2021-11-03T12:06:42 -01:00"
  },
  {
    "id": 17,
    "picture": "http://placehold.it/32x32",
    "age": 72,
    "name": "Lavonne Harrell",
    "gender": "female",
    "about": "Laboris duis excepteur minim ad sunt reprehenderit eiusmod tempor nulla nostrud. Et ullamco et elit reprehenderit ipsum ullamco esse nisi. Voluptate officia culpa ea est eiusmod ex cupidatat. Culpa aliqua nostrud cupidatat minim incididunt officia enim eiusmod reprehenderit duis. Mollit nostrud duis nisi veniam quis anim enim amet eu amet minim enim.\r\n",
    "registered": "2017-04-09T10:24:04 -02:00"
  },
  {
    "id": 18,
    "picture": "http://placehold.it/32x32",
    "age": 72,
    "name": "Lynch Hays",
    "gender": "male",
    "about": "Est dolore aliqua eiusmod duis. Aliqua irure commodo ex consequat consequat nostrud culpa ad esse dolore culpa. In magna magna et mollit irure incididunt tempor aliqua voluptate fugiat cillum veniam eu.\r\n",
    "registered": "2015-11-21T12:31:15 -01:00"
  },
  {
    "id": 19,
    "picture": "http://placehold.it/32x32",
    "age": 88,
    "name": "Beryl Briggs",
    "gender": "female",
    "about": "Ea esse adipisicing commodo dolor. Exercitation amet ea nulla eu adipisicing proident ea ipsum aute. Ut aute eiusmod duis aliquip sint id aute nisi nisi. Pariatur officia amet nisi non adipisicing excepteur qui ipsum magna nostrud ut et ipsum. Ea nostrud minim aliquip aute anim aliqua adipisicing.\r\n",
    "registered": "2018-05-09T05:23:02 -02:00"
  }
]